%YAML 1.1
%TAG !u! tag:unity3d.com,2011:
--- !u!1045 &1
EditorBuildSettings:
  m_ObjectHideFlags: 0
  serializedVersion: 2
  m_Scenes:
  - enabled: 0
    path: Assets/Scenes/SampleScene.unity
    guid: 2cda990e2423bbf4892e6590ba056729
  - enabled: 1
    path: Assets/Scenes/Menu.unity
    guid: 6747e325df9c51f4b9cb9eafcfd94e64
  - enabled: 1
    path: Assets/Scenes/Game.unity
    guid: 2fba0cc269bdf6348acf9a5e637008e7
  m_configObjects: {}
